<?xml version="1.0" encoding="utf-8"?>
<!-- Generator: Adobe Illustrator 21.1.0, SVG Export Plug-In . SVG Version: 6.00 Build 0)  -->
<svg version="1.1" id="Layer_1" xmlns="http://www.w3.org/2000/svg" xmlns:xlink="http://www.w3.org/1999/xlink" x="0px" y="0px"
	 viewBox="0 0 181.5 179.9" style="enable-background:new 0 0 181.5 179.9;" xml:space="preserve">
<style type="text/css">
	.st0{fill:#004A00;}
</style>
<title>Home Icon</title>
<polygon class="st0" points="181.5,96 157.4,96 157.4,179.9 113.3,179.9 113.3,132.3 68.2,132.3 68.2,179.9 24.1,179.9 24.1,96 
	0,96 90.7,0 "/>
</svg>
